…
    ## [1] 40833    21

``` r
class(steam_games) #Returns the class of the dataset
```

    ## [1] "spec_tbl_df" "tbl_df"      "tbl"         "data.frame"

``` r
steam_games %>% 
  group_by(genre) %>% 
  summarize(n())
```

    ## # A tibble: 1,769 × 2
    ##    genre                                                                   `n()`
    ##    <chr>                                                                   <int>
    ##  1 Accounting                                                                  2
    ##  2 Accounting,Animation & Modeling,Audio Production,Design & Illustration…     1
    ##  3 Accounting,Animation & Modeling,Audio Production,Design & Illustration…     2
    ##  4 Accounting,Education,Software Training,Utilities,Early Access               1
    ##  5 Action                                                                   2386
    ##  6 Action,Adventure                                                          809
    ##  7 Action,Adventure,Casual                                                    64
    ##  8 Action,Adventure,Casual,Early Access                                        1
    ##  9 Action,Adventure,Casual,Free to Play                                        1
    ## 10 Action,Adventure,Casual,Free to Play,Early Access                           1
    ## # … with 1,759 more rows
…
    ## [1] 146611     20

``` r
class(vancouver_trees) #Returns the class of the dataset
```

    ## [1] "tbl_df"     "tbl"        "data.frame"

``` r
vancouver_trees %>% 
  group_by(genus_name) %>% 
  summarize(n())
```

    ## # A tibble: 97 × 2
    ##    genus_name  `n()`
    ##    <chr>       <int>
    ##  1 ABIES         190
    ##  2 ACER        36062
    ##  3 AESCULUS     2570
    ##  4 AILANTHUS       4
    ##  5 ALBIZIA         1
    ##  6 ALNUS          74
    ##  7 AMELANCHIER   226
    ##  8 ARALIA          4
    ##  9 ARAUCARIA      10
    ## 10 ARBUTUS        10
    ## # … with 87 more rows
…
Calculating the expected area_mean of the nuclei present based on the
observed radius_mean and assigning it as a new variable. **Rationale**:
This was done to calculate what the expected mean area would be of the
nuclei given the observed mean radii of the nuclei observed. This could
be explored later as a research question to see how close the observed
mean area is to the expected mean area.

``` r
cancer_sample %>% 
  mutate(expected_area_mean = (radius_mean)^2 * pi) %>% 
  relocate(expected_area_mean, .after = radius_mean) %>% 
  relocate(area_mean, .after = expected_area_mean)
```

    ## # A tibble: 569 × 33
    ##          ID diagnosis radius_mean expected_area_mean area_mean texture_mean
    ##       <dbl> <chr>           <dbl>              <dbl>     <dbl>        <dbl>
    ##  1   842302 M                18.0              1017.     1001          10.4
    ##  2   842517 M                20.6              1329.     1326          17.8
    ##  3 84300903 M                19.7              1218.     1203          21.2
    ##  4 84348301 M                11.4               410.      386.         20.4
    ##  5 84358402 M                20.3              1293.     1297          14.3
    ##  6   843786 M                12.4               487.      477.         15.7
    ##  7   844359 M                18.2              1046.     1040          20.0
    ##  8 84458202 M                13.7               591.      578.         20.8
    ##  9   844981 M                13                 531.      520.         21.8
    ## 10 84501001 M                12.5               488.      476.         24.0
    ## # … with 559 more rows, and 27 more variables: perimeter_mean <dbl>,
    ## #   smoothness_mean <dbl>, compactness_mean <dbl>, concavity_mean <dbl>,
    ## #   concave_points_mean <dbl>, symmetry_mean <dbl>,
    ## #   fractal_dimension_mean <dbl>, radius_se <dbl>, texture_se <dbl>,
    ## #   perimeter_se <dbl>, area_se <dbl>, smoothness_se <dbl>,
    ## #   compactness_se <dbl>, concavity_se <dbl>, concave_points_se <dbl>,
    ## #   symmetry_se <dbl>, fractal_dimension_se <dbl>, radius_worst <dbl>, …
…
