…
``` r
# One caveat I noticed with the code immediately below when I was doing my corrections to Milestone 2 is that doesn't only look at ULMUS AMERICANA - it quantifies species called "AMERICANA" in any genus.  If I wanted to look specifically at ULMUS AMERICANA, I would also run the code that is commented out below.
freq_ulmus_americana <- vancouver_trees %>% 
# filter(genus_name == "ULMUS) %>%   
  filter(species_name == "AMERICANA") %>% 
  group_by(neighbourhood_name) %>% 
  summarise(ulmus_americana_per_neighbourhood = n())

print(freq_ulmus_americana)
```

    ## # A tibble: 22 × 2
    ##    neighbourhood_name       ulmus_americana_per_neighbourhood
    ##    <chr>                                                <int>
    ##  1 ARBUTUS-RIDGE                                          225
    ##  2 DOWNTOWN                                                50
    ##  3 DUNBAR-SOUTHLANDS                                      435
    ##  4 FAIRVIEW                                               165
    ##  5 GRANDVIEW-WOODLAND                                     208
    ##  6 HASTINGS-SUNRISE                                       175
    ##  7 KENSINGTON-CEDAR COTTAGE                               747
    ##  8 KERRISDALE                                             340
    ##  9 KILLARNEY                                              206
    ## 10 KITSILANO                                              260
    ## # … with 12 more rows
…
    ## [1] "The range of the frequency of Ulmus Americana among Vancouver's neighbourhoods is c(49, 780)"

``` r
# This code contains corrections based on the TA feedback for Milestone 2
# Based on the feedback, I need to calculate summary statistics on two categorical variables.  So here is the calculation of summary statistics for another categorical variable, genus_name.
freq_ulmus <- vancouver_trees %>% 
  filter(genus_name == "ULMUS") %>% 
  group_by(neighbourhood_name) %>% 
  summarise(ulmus_per_neighbourhood = n())

print(freq_ulmus)
```

    ## # A tibble: 22 × 2
    ##    neighbourhood_name       ulmus_per_neighbourhood
    ##    <chr>                                      <int>
    ##  1 ARBUTUS-RIDGE                                159
    ##  2 DOWNTOWN                                      18
    ##  3 DUNBAR-SOUTHLANDS                            468
    ##  4 FAIRVIEW                                     127
    ##  5 GRANDVIEW-WOODLAND                           269
    ##  6 HASTINGS-SUNRISE                               1
    ##  7 KENSINGTON-CEDAR COTTAGE                      32
    ##  8 KERRISDALE                                   270
    ##  9 KILLARNEY                                     48
    ## 10 KITSILANO                                    142
    ## # … with 12 more rows
…
### Research Question 4

#### SUMMARIZING: Compute the *range*, *mean*, and *two other summary statistics* of **one numerical variable** across the groups of **one categorical variable** from your data.

The code below will calculate the mean of the heights of trees
represented in this dataset.

``` r
# This code contains corrections based on the TA feedback for Milestone 2
# It will return a tibble that has the mean of the heights of the trees, by neighbourhood_name.
height_mean_v2 <- vancouver_trees %>% group_by(neighbourhood_name) %>%summarize(mean_height = mean(height_range_id))
print(height_mean_v2)
```

    ## # A tibble: 22 × 2
    ##    neighbourhood_name       mean_height
    ##    <chr>                          <dbl>
    ##  1 ARBUTUS-RIDGE                   2.72
    ##  2 DOWNTOWN                        2.44
    ##  3 DUNBAR-SOUTHLANDS               3.03
    ##  4 FAIRVIEW                        2.80
    ##  5 GRANDVIEW-WOODLAND              2.60
    ##  6 HASTINGS-SUNRISE                2.46
    ##  7 KENSINGTON-CEDAR COTTAGE        2.60
    ##  8 KERRISDALE                      2.81
    ##  9 KILLARNEY                       2.50
    ## 10 KITSILANO                       3.26
    ## # … with 12 more rows
…
``` r
# This code contains corrections based on the TA feedback for Milestone 2
# It will return a tibble that has the range of the heights of the trees, by neighbourhood_name.
height_range_v2 <- vancouver_trees %>% group_by(neighbourhood_name) %>% summarize(height_range = range(height_range_id))
```

    ## `summarise()` has grouped output by 'neighbourhood_name'. You can override using the `.groups` argument.

``` r
print(height_range_v2)
```

    ## # A tibble: 44 × 2
    ## # Groups:   neighbourhood_name [22]
    ##    neighbourhood_name height_range
    ##    <chr>                     <dbl>
    ##  1 ARBUTUS-RIDGE                 0
    ##  2 ARBUTUS-RIDGE                10
    ##  3 DOWNTOWN                      0
    ##  4 DOWNTOWN                      8
    ##  5 DUNBAR-SOUTHLANDS             0
    ##  6 DUNBAR-SOUTHLANDS            10
    ##  7 FAIRVIEW                      0
    ##  8 FAIRVIEW                      9
    ##  9 GRANDVIEW-WOODLAND            0
    ## 10 GRANDVIEW-WOODLAND            9
    ## # … with 34 more rows

The code below will calculate the standard deviation of the height of
trees in this dataset.

``` r
# This code contains corrections based on the TA feedback for Milestone 2
# It will return a tibble that has the standard deivation of the heights of the trees, by neighbourhood_name.
height_sd_v2 <- vancouver_trees %>% group_by(neighbourhood_name) %>% summarize(height_sd = sd(height_range_id))
print(height_sd_v2)
```

    ## # A tibble: 22 × 2
    ##    neighbourhood_name       height_sd
    ##    <chr>                        <dbl>
    ##  1 ARBUTUS-RIDGE                 1.55
    ##  2 DOWNTOWN                      1.22
    ##  3 DUNBAR-SOUTHLANDS             1.93
    ##  4 FAIRVIEW                      1.52
    ##  5 GRANDVIEW-WOODLAND            1.56
    ##  6 HASTINGS-SUNRISE              1.40
    ##  7 KENSINGTON-CEDAR COTTAGE      1.42
    ##  8 KERRISDALE                    1.69
    ##  9 KILLARNEY                     1.26
    ## 10 KITSILANO                     1.86
    ## # … with 12 more rows

The code below will calculate the median of the height of trees in this
dataset.

``` r
# This code contains corrections based on the TA feedback for Milestone 2
# It will return a tibble that has the median of the heights of the trees, by neighbourhood_name.
height_median_v2 <- vancouver_trees %>% group_by(neighbourhood_name) %>% summarize(median_height = median(height_range_id))
print(height_median_v2)
```

    ## # A tibble: 22 × 2
    ##    neighbourhood_name       median_height
    ##    <chr>                            <dbl>
    ##  1 ARBUTUS-RIDGE                        2
    ##  2 DOWNTOWN                             2
    ##  3 DUNBAR-SOUTHLANDS                    2
    ##  4 FAIRVIEW                             3
    ##  5 GRANDVIEW-WOODLAND                   2
    ##  6 HASTINGS-SUNRISE                     2
    ##  7 KENSINGTON-CEDAR COTTAGE             2
    ##  8 KERRISDALE                           2
    ##  9 KILLARNEY                            2
    ## 10 KITSILANO                            3
    ## # … with 12 more rows
…
``` r
trees_restored_names <- trees_scientific_names %>% separate(col = scientific_name, into = c("genus_name", "species_name"))
```

    ## Warning: Expected 2 pieces. Additional pieces discarded in 15303 rows [11, 12,
    ## 48, 55, 58, 59, 60, 99, 248, 249, 257, 258, 259, 260, 261, 314, 315, 316, 317,
    ## 342, ...].

``` r
print(trees_restored_names)
```

    ## # A tibble: 146,611 × 8
    ##    tree_id civic_number std_street    genus_name species_name cultivar_name  
    ##      <dbl>        <dbl> <chr>         <chr>      <chr>        <chr>          
    ##  1  149556          494 W 58TH AV     ULMUS      AMERICANA    BRANDON        
    ##  2  149563          450 W 58TH AV     ZELKOVA    SERRATA      <NA>           
    ##  3  149579         4994 WINDSOR ST    STYRAX     JAPONICA     <NA>           
    ##  4  149590          858 E 39TH AV     FRAXINUS   AMERICANA    AUTUMN APPLAUSE
    ##  5  149604         5032 WINDSOR ST    ACER       CAMPESTRE    <NA>           
    ##  6  149616          585 W 61ST AV     PYRUS      CALLERYANA   CHANTICLEER    
    ##  7  149617         4909 SHERBROOKE ST ACER       PLATANOIDES  COLUMNARE      
    ##  8  149618         4925 SHERBROOKE ST ACER       PLATANOIDES  COLUMNARE      
    ##  9  149619         4969 SHERBROOKE ST ACER       PLATANOIDES  COLUMNARE      
    ## 10  149625          720 E 39TH AV     FRAXINUS   AMERICANA    AUTUMN APPLAUSE
    ## # … with 146,601 more rows, and 2 more variables: common_name <chr>,
    ## #   assigned <chr>
…
``` r
tidy_vancouver_trees <- vancouver_trees %>% select(tree_id, genus_name, species_name, root_barrier, neighbourhood_name, height_range_id, diameter, date_planted) %>%
  separate(date_planted, into = c("year", "month", "day"), sep = "-") %>% 
  filter(!is.na(height_range_id)) %>% 
  filter(!is.na(diameter)) %>% 
  rename(tree = tree_id, genus = genus_name, species = species_name, neighbourhood = neighbourhood_name, height = height_range_id)

print(tidy_vancouver_trees)
```

    ## # A tibble: 146,611 × 10
    ##      tree genus  species root_barrier neighbourhood  height diameter year  month
    ##     <dbl> <chr>  <chr>   <chr>        <chr>           <dbl>    <dbl> <chr> <chr>
    ##  1 149556 ULMUS  AMERIC… N            MARPOLE             2     10   1999  01   
    ##  2 149563 ZELKO… SERRATA N            MARPOLE             4     10   1996  05   
    ##  3 149579 STYRAX JAPONI… N            KENSINGTON-CE…      3      4   1993  11   
    ##  4 149590 FRAXI… AMERIC… N            KENSINGTON-CE…      4     18   1996  04   
    ##  5 149604 ACER   CAMPES… N            KENSINGTON-CE…      2      9   1993  12   
    ##  6 149616 PYRUS  CALLER… N            MARPOLE             2      5   <NA>  <NA> 
    ##  7 149617 ACER   PLATAN… N            KENSINGTON-CE…      3     15   1993  12   
    ##  8 149618 ACER   PLATAN… N            KENSINGTON-CE…      3     14   1993  12   
    ##  9 149619 ACER   PLATAN… N            KENSINGTON-CE…      2     16   1993  12   
    ## 10 149625 FRAXI… AMERIC… N            KENSINGTON-CE…      2      7.5 1993  12   
    ## # … with 146,601 more rows, and 1 more variable: day <chr>
…
